{
  "name": "documentRelation",
  "plural": "documentRelations",
  "base": "PersistedModel",
  "idInjection": true,
  "options": {
    "validateUpsert": true
  },
  "properties": {
    "objectId": {
      "type": "number",
      "required": true
    },
    "subjectId": {
      "type": "number",
      "required": true
    },
    "relationId": {
      "type": "number",
      "required": true
    },
    "ownerId": {
      "type": "number",
      "required": true
    }
  },
  "validations": [],
  "relations": {
    "subject": {
      "type": "hasMany",
      "model": "document",
      "foreignKey": "id"
    }
  },
  "acls": [],
  "methods": {}
}
