{
  "name": "globalKolConfig",
  "plural": "globalKolConfigs",
  "base": "PersistedModel",
  "idInjection": true,
  "options": {
    "validateUpsert": true
  },
  "properties": {
    "kol_filter_config": {
      "postgresql": {
        "dataType": "json"
      },
      "type": "object"
    }
  },
  "validations": [],
  "relations": {},
  "acls": [],
  "methods": {}
}
