{
  "name": "projectUser",
  "plural": "projectUsers",
  "base": "PersistedModel",
  "idInjection": true,
  "options": {
    "validateUpsert": true
  },
  "properties": {
    "user_id": {
      "type": "number",
      "required": true
    },
    "role": {
      "type": "string"
    }
  },
  "validations": [],
  "relations": {
    "project": { "type": "belongsTo", "model": "peojectUser", "foreignKey": "" }
  },
  "acls": [],
  "methods": {}
}
