{
  "_meta": {
    "sources": [
      "loopback/common/models",
      "loopback/server/models",
      "../common/models",
      "./models"
    ],
    "mixins": [
      "loopback/common/mixins",
      "loopback/server/mixins",
      "../common/mixins",
      "./mixins"
    ]
  },
  "document": {
    "dataSource": "cycuritydb",
    "public": true
  },
  "documentRelation": {
    "dataSource": "cycuritydb",
    "public": true
  },
  "globalConfig": {
    "dataSource": "cycuritydb",
    "public": true
  },
  "profileImage": {
    "dataSource": "cycuritydb",
    "public": true
  }
}
