{
  "name": "voLaunch",
  "plural": "voLaunches",
  "base": "PersistedModel",
  "idInjection": true,
  "options": {
    "validateUpsert": true
  },
  "properties": {
    "when": {
      "type": "date",
      "required": true
    }
  },
  "validations": [],
  "relations": {
    "vo": {
      "type": "belongsTo",
      "model": "vo",
      "foreignKey": ""
    }
  },
  "acls": [],
  "methods": {}
}
