{
  "cycuritydb": {
    "host": "${DB_HOST}",
    "port": "5432",
    "password": "admin",
    "name": "cycuritydb",
    "database": "cycuritydb",
    "user": "postgres",
    "connector": "postgresql"
  }
}
